…
> base::assign(".old_wd", base::getwd(), pos = 'CheckExEnv')
> cleanEx()
> nameEx("as-tibble")
> ### * as-tibble
> 
> flush(stderr()); flush(stdout())
> 
> ### Name: as_tibble.tbl_ts
> ### Title: Coerce to a tibble or data frame
> ### Aliases: as_tibble.tbl_ts
> 
> ### ** Examples
> 
> as_tibble(pedestrian)
# A tibble: 66,037 x 5
   Sensor         Date_Time           Date        Time Count
   <chr>          <dttm>              <date>     <int> <int>
 1 Birrarung Marr 2015-01-01 00:00:00 2015-01-01     0  1630
 2 Birrarung Marr 2015-01-01 01:00:00 2015-01-01     1   826
 3 Birrarung Marr 2015-01-01 02:00:00 2015-01-01     2   567
 4 Birrarung Marr 2015-01-01 03:00:00 2015-01-01     3   264
 5 Birrarung Marr 2015-01-01 04:00:00 2015-01-01     4   139
 6 Birrarung Marr 2015-01-01 05:00:00 2015-01-01     5    77
 7 Birrarung Marr 2015-01-01 06:00:00 2015-01-01     6    44
 8 Birrarung Marr 2015-01-01 07:00:00 2015-01-01     7    56
 9 Birrarung Marr 2015-01-01 08:00:00 2015-01-01     8   113
10 Birrarung Marr 2015-01-01 09:00:00 2015-01-01     9   166
# … with 66,027 more rows
…
 8 2017-01-08  0.738
 9 2017-01-09  0.576
10 2017-01-10 -0.305
> 
> # coerce tibble to tsibble with a single variable for key
> # use `yearquarter()` to represent quarterly data
> tbl2 <- tibble(
+   qtr = rep(yearquarter("2010 Q1") + 0:9, 3),
+   group = rep(c("x", "y", "z"), each = 10),
+   value = rnorm(30)
+ )
> # "qtr" is automatically considered as the index var
> as_tsibble(tbl2, key = group)
Using `qtr` as index variable.
# A tsibble: 30 x 3 [1Q]
# Key:       group [3]
       qtr group   value
     <qtr> <chr>   <dbl>
 1 2010 Q1 x      1.51  
 2 2010 Q2 x      0.390 
 3 2010 Q3 x     -0.621 
 4 2010 Q4 x     -2.21  
 5 2011 Q1 x      1.12  
 6 2011 Q2 x     -0.0449
 7 2011 Q3 x     -0.0162
 8 2011 Q4 x      0.944 
 9 2012 Q1 x      0.821 
10 2012 Q2 x      0.594 
# … with 20 more rows
> as_tsibble(tbl2, key = group, index = qtr)
# A tsibble: 30 x 3 [1Q]
# Key:       group [3]
       qtr group   value
     <qtr> <chr>   <dbl>
 1 2010 Q1 x      1.51  
 2 2010 Q2 x      0.390 
 3 2010 Q3 x     -0.621 
 4 2010 Q4 x     -2.21  
 5 2011 Q1 x      1.12  
 6 2011 Q2 x     -0.0449
 7 2011 Q3 x     -0.0162
 8 2011 Q4 x      0.944 
 9 2012 Q1 x      0.821 
10 2012 Q2 x      0.594 
# … with 20 more rows
> 
> # create a tsibble with multiple variables for key
> # use `yearmonth()` to represent monthly data
> tbl3 <- tibble(
+   mth = rep(yearmonth("2010 Jan") + 0:8, each = 3),
+   xyz = rep(c("x", "y", "z"), each = 9),
+   abc = rep(letters[1:3], times = 9),
+   value = rnorm(27)
+ )
> as_tsibble(tbl3, key = c(xyz, abc))
Using `mth` as index variable.
# A tsibble: 27 x 4 [1M]
# Key:       xyz, abc [9]
        mth xyz   abc    value
      <mth> <chr> <chr>  <dbl>
 1 2010 Jan x     a     -0.165
 2 2010 Feb x     a      0.557
 3 2010 Mar x     a      0.365
 4 2010 Jan x     b     -0.253
 5 2010 Feb x     b     -0.689
 6 2010 Mar x     b      0.769
 7 2010 Jan x     c      0.697
 8 2010 Feb x     c     -0.707
 9 2010 Mar x     c     -0.112
10 2010 Apr y     a      0.881
# … with 17 more rows
> # coerce ts to tsibble
> as_tsibble(AirPassengers)
# A tsibble: 144 x 2 [1M]
      index value
      <mth> <dbl>
 1 1949 Jan   112
 2 1949 Feb   118
 3 1949 Mar   132
 4 1949 Apr   129
 5 1949 May   121
 6 1949 Jun   135
 7 1949 Jul   148
 8 1949 Aug   148
 9 1949 Sep   136
10 1949 Oct   119
# … with 134 more rows
> as_tsibble(sunspot.year)
# A tsibble: 289 x 2 [1Y]
   index value
   <dbl> <dbl>
 1  1700     5
 2  1701    11
 3  1702    16
 4  1703    23
 5  1704    36
 6  1705    58
 7  1706    29
 8  1707    20
 9  1708    10
10  1709     8
# … with 279 more rows
> as_tsibble(sunspot.month)
# A tsibble: 3,177 x 2 [1M]
      index value
      <mth> <dbl>
 1 1749 Jan  58  
 2 1749 Feb  62.6
 3 1749 Mar  70  
 4 1749 Apr  55.7
 5 1749 May  85  
 6 1749 Jun  83.5
 7 1749 Jul  94.8
 8 1749 Aug  66.3
 9 1749 Sep  75.9
10 1749 Oct  75.5
# … with 3,167 more rows
> as_tsibble(austres)
# A tsibble: 89 x 2 [1Q]
     index  value
     <qtr>  <dbl>
 1 1971 Q2 13067.
 2 1971 Q3 13130.
 3 1971 Q4 13198.
 4 1972 Q1 13254.
 5 1972 Q2 13304.
 6 1972 Q3 13354.
 7 1972 Q4 13409.
 8 1973 Q1 13459.
 9 1973 Q2 13504.
10 1973 Q3 13553.
# … with 79 more rows
> # coerce mts to tsibble
> z <- ts(matrix(rnorm(300), 100, 3), start = c(1961, 1), frequency = 12)
> as_tsibble(z)
# A tsibble: 300 x 3 [1M]
# Key:       key [3]
      index key       value
      <mth> <chr>     <dbl>
 1 1961 Jan Series 1  1.47 
 2 1961 Feb Series 1  0.153
 3 1961 Mar Series 1  2.17 
 4 1961 Apr Series 1  0.476
 5 1961 May Series 1 -0.710
 6 1961 Jun Series 1  0.611
 7 1961 Jul Series 1 -0.934
 8 1961 Aug Series 1 -1.25 
 9 1961 Sep Series 1  0.291
10 1961 Oct Series 1 -0.443
# … with 290 more rows
> as_tsibble(z, pivot_longer = FALSE)
# A tsibble: 100 x 4 [1M]
      index `Series 1` `Series 2` `Series 3`
      <mth>      <dbl>      <dbl>      <dbl>
 1 1961 Jan      1.47     -1.42       -1.19 
 2 1961 Feb      0.153    -0.144      -0.331
 3 1961 Mar      2.17      0.208      -0.940
 4 1961 Apr      0.476     2.31       -0.259
 5 1961 May     -0.710     0.106       0.394
 6 1961 Jun      0.611     0.457      -0.852
 7 1961 Jul     -0.934    -0.0772      2.65 
 8 1961 Aug     -1.25     -0.334       0.156
 9 1961 Sep      0.291    -0.0347      1.13 
10 1961 Oct     -0.443     0.788      -2.29 
# … with 90 more rows
…
> flush(stderr()); flush(stdout())
> 
> ### Name: build_tsibble
> ### Title: Low-level constructor for a tsibble object
> ### Aliases: build_tsibble
> 
> ### ** Examples
> 
> # Prepare `pedestrian` to use a new index `Date` ----
> pedestrian %>%
+   build_tsibble(
+     key = !!key_vars(.), index = !!index(.), index2 = Date,
+     interval = interval(.)
+   )
# A tsibble: 66,037 x 5 [1h] <Australia/Melbourne>
# Key:       Sensor [4]
# Groups:    @ Date [731]
   Sensor         Date_Time           Date        Time Count
   <chr>          <dttm>              <date>     <int> <int>
 1 Birrarung Marr 2015-01-01 00:00:00 2015-01-01     0  1630
 2 Birrarung Marr 2015-01-01 01:00:00 2015-01-01     1   826
 3 Birrarung Marr 2015-01-01 02:00:00 2015-01-01     2   567
 4 Birrarung Marr 2015-01-01 03:00:00 2015-01-01     3   264
 5 Birrarung Marr 2015-01-01 04:00:00 2015-01-01     4   139
 6 Birrarung Marr 2015-01-01 05:00:00 2015-01-01     5    77
 7 Birrarung Marr 2015-01-01 06:00:00 2015-01-01     6    44
 8 Birrarung Marr 2015-01-01 07:00:00 2015-01-01     7    56
 9 Birrarung Marr 2015-01-01 08:00:00 2015-01-01     8   113
10 Birrarung Marr 2015-01-01 09:00:00 2015-01-01     9   166
# … with 66,027 more rows
…
  <dbl> <chr>  <int>
1  2011 cherry     1
2  2012 cherry    NA
3  2013 cherry     6
4  2014 cherry     5
5  2010 kiwi       9
6  2011 kiwi       4
7  2012 kiwi      20
8  2013 kiwi       7
> 
> # replace NA
> pedestrian %>%
+   group_by_key() %>%
+   fill_gaps(Count = as.integer(median(Count)))
# A tsibble: 69,048 x 5 [1h] <Australia/Melbourne>
# Key:       Sensor [4]
# Groups:    Sensor [4]
   Sensor         Date_Time           Date        Time Count
   <chr>          <dttm>              <date>     <int> <int>
 1 Birrarung Marr 2015-01-01 00:00:00 2015-01-01     0  1630
 2 Birrarung Marr 2015-01-01 01:00:00 2015-01-01     1   826
 3 Birrarung Marr 2015-01-01 02:00:00 2015-01-01     2   567
 4 Birrarung Marr 2015-01-01 03:00:00 2015-01-01     3   264
 5 Birrarung Marr 2015-01-01 04:00:00 2015-01-01     4   139
 6 Birrarung Marr 2015-01-01 05:00:00 2015-01-01     5    77
 7 Birrarung Marr 2015-01-01 06:00:00 2015-01-01     6    44
 8 Birrarung Marr 2015-01-01 07:00:00 2015-01-01     7    56
 9 Birrarung Marr 2015-01-01 08:00:00 2015-01-01     8   113
10 Birrarung Marr 2015-01-01 09:00:00 2015-01-01     9   166
# … with 69,038 more rows
> 
> if (!requireNamespace("tidyr", quietly = TRUE)) {
+   stop("Please install the 'tidyr' package to run these following examples.")
+ }
> # use fill() to fill `NA` by previous/next entry
> pedestrian %>%
+   group_by_key() %>%
+   fill_gaps() %>%
+   tidyr::fill(Count, .direction = "down")
# A tsibble: 69,048 x 5 [1h] <Australia/Melbourne>
# Key:       Sensor [4]
# Groups:    Sensor [4]
   Sensor         Date_Time           Date        Time Count
   <chr>          <dttm>              <date>     <int> <int>
 1 Birrarung Marr 2015-01-01 00:00:00 2015-01-01     0  1630
 2 Birrarung Marr 2015-01-01 01:00:00 2015-01-01     1   826
 3 Birrarung Marr 2015-01-01 02:00:00 2015-01-01     2   567
 4 Birrarung Marr 2015-01-01 03:00:00 2015-01-01     3   264
 5 Birrarung Marr 2015-01-01 04:00:00 2015-01-01     4   139
 6 Birrarung Marr 2015-01-01 05:00:00 2015-01-01     5    77
 7 Birrarung Marr 2015-01-01 06:00:00 2015-01-01     6    44
 8 Birrarung Marr 2015-01-01 07:00:00 2015-01-01     7    56
 9 Birrarung Marr 2015-01-01 08:00:00 2015-01-01     8   113
10 Birrarung Marr 2015-01-01 09:00:00 2015-01-01     9   166
# … with 69,038 more rows
…
> nameEx("filter_index")
> ### * filter_index
> 
> flush(stderr()); flush(stdout())
> 
> ### Name: filter_index
> ### Title: A shorthand for filtering time index for a tsibble
> ### Aliases: filter_index
> 
> ### ** Examples
> 
> # from the starting time to the end of Feb, 2015
> pedestrian %>%
+   filter_index(~ "2015-02")
# A tsibble: 4,536 x 5 [1h] <Australia/Melbourne>
# Key:       Sensor [4]
   Sensor         Date_Time           Date        Time Count
   <chr>          <dttm>              <date>     <int> <int>
 1 Birrarung Marr 2015-01-01 00:00:00 2015-01-01     0  1630
 2 Birrarung Marr 2015-01-01 01:00:00 2015-01-01     1   826
 3 Birrarung Marr 2015-01-01 02:00:00 2015-01-01     2   567
 4 Birrarung Marr 2015-01-01 03:00:00 2015-01-01     3   264
 5 Birrarung Marr 2015-01-01 04:00:00 2015-01-01     4   139
 6 Birrarung Marr 2015-01-01 05:00:00 2015-01-01     5    77
 7 Birrarung Marr 2015-01-01 06:00:00 2015-01-01     6    44
 8 Birrarung Marr 2015-01-01 07:00:00 2015-01-01     7    56
 9 Birrarung Marr 2015-01-01 08:00:00 2015-01-01     8   113
10 Birrarung Marr 2015-01-01 09:00:00 2015-01-01     9   166
# … with 4,526 more rows
> 
> # entire Feb 2015, & from the beginning of Aug 2016 to the end
> pedestrian %>%
+   filter_index("2015-02", "2016-08" ~ .)
# A tsibble: 16,244 x 5 [1h] <Australia/Melbourne>
# Key:       Sensor [4]
   Sensor         Date_Time           Date        Time Count
   <chr>          <dttm>              <date>     <int> <int>
 1 Birrarung Marr 2015-02-01 00:00:00 2015-02-01     0   178
 2 Birrarung Marr 2015-02-01 01:00:00 2015-02-01     1    39
 3 Birrarung Marr 2015-02-01 02:00:00 2015-02-01     2    41
 4 Birrarung Marr 2015-02-01 03:00:00 2015-02-01     3    32
 5 Birrarung Marr 2015-02-01 04:00:00 2015-02-01     4    33
 6 Birrarung Marr 2015-02-01 05:00:00 2015-02-01     5    39
 7 Birrarung Marr 2015-02-01 06:00:00 2015-02-01     6    45
 8 Birrarung Marr 2015-02-01 07:00:00 2015-02-01     7    45
 9 Birrarung Marr 2015-02-01 08:00:00 2015-02-01     8    96
10 Birrarung Marr 2015-02-01 09:00:00 2015-02-01     9   116
# … with 16,234 more rows
> 
> # multiple time windows
> pedestrian %>%
+   filter_index(~"2015-02", "2015-08" ~ "2015-09", "2015-12" ~ "2016-02")
# A tsibble: 19,008 x 5 [1h] <Australia/Melbourne>
# Key:       Sensor [4]
   Sensor         Date_Time           Date        Time Count
   <chr>          <dttm>              <date>     <int> <int>
 1 Birrarung Marr 2015-01-01 00:00:00 2015-01-01     0  1630
 2 Birrarung Marr 2015-01-01 01:00:00 2015-01-01     1   826
 3 Birrarung Marr 2015-01-01 02:00:00 2015-01-01     2   567
 4 Birrarung Marr 2015-01-01 03:00:00 2015-01-01     3   264
 5 Birrarung Marr 2015-01-01 04:00:00 2015-01-01     4   139
 6 Birrarung Marr 2015-01-01 05:00:00 2015-01-01     5    77
 7 Birrarung Marr 2015-01-01 06:00:00 2015-01-01     6    44
 8 Birrarung Marr 2015-01-01 07:00:00 2015-01-01     7    56
 9 Birrarung Marr 2015-01-01 08:00:00 2015-01-01     8   113
10 Birrarung Marr 2015-01-01 09:00:00 2015-01-01     9   166
# … with 18,998 more rows
> 
> # entire 2015
> pedestrian %>%
+   filter_index("2015")
# A tsibble: 32,276 x 5 [1h] <Australia/Melbourne>
# Key:       Sensor [4]
   Sensor         Date_Time           Date        Time Count
   <chr>          <dttm>              <date>     <int> <int>
 1 Birrarung Marr 2015-01-01 00:00:00 2015-01-01     0  1630
 2 Birrarung Marr 2015-01-01 01:00:00 2015-01-01     1   826
 3 Birrarung Marr 2015-01-01 02:00:00 2015-01-01     2   567
 4 Birrarung Marr 2015-01-01 03:00:00 2015-01-01     3   264
 5 Birrarung Marr 2015-01-01 04:00:00 2015-01-01     4   139
 6 Birrarung Marr 2015-01-01 05:00:00 2015-01-01     5    77
 7 Birrarung Marr 2015-01-01 06:00:00 2015-01-01     6    44
 8 Birrarung Marr 2015-01-01 07:00:00 2015-01-01     7    56
 9 Birrarung Marr 2015-01-01 08:00:00 2015-01-01     8   113
10 Birrarung Marr 2015-01-01 09:00:00 2015-01-01     9   166
# … with 32,266 more rows
> 
> # specific
> pedestrian %>%
+   filter_index("2015-03-23" ~ "2015-10")
# A tsibble: 20,180 x 5 [1h] <Australia/Melbourne>
# Key:       Sensor [4]
   Sensor         Date_Time           Date        Time Count
   <chr>          <dttm>              <date>     <int> <int>
 1 Birrarung Marr 2015-03-23 00:00:00 2015-03-23     0    39
 2 Birrarung Marr 2015-03-23 01:00:00 2015-03-23     1    24
 3 Birrarung Marr 2015-03-23 02:00:00 2015-03-23     2     1
 4 Birrarung Marr 2015-03-23 03:00:00 2015-03-23     3     3
 5 Birrarung Marr 2015-03-23 04:00:00 2015-03-23     4    16
 6 Birrarung Marr 2015-03-23 05:00:00 2015-03-23     5    36
 7 Birrarung Marr 2015-03-23 06:00:00 2015-03-23     6   178
 8 Birrarung Marr 2015-03-23 07:00:00 2015-03-23     7   462
 9 Birrarung Marr 2015-03-23 08:00:00 2015-03-23     8   756
10 Birrarung Marr 2015-03-23 09:00:00 2015-03-23     9   289
# … with 20,170 more rows
> pedestrian %>%
+   filter_index("2015-03-23" ~ "2015-10-31")
# A tsibble: 20,180 x 5 [1h] <Australia/Melbourne>
# Key:       Sensor [4]
   Sensor         Date_Time           Date        Time Count
   <chr>          <dttm>              <date>     <int> <int>
 1 Birrarung Marr 2015-03-23 00:00:00 2015-03-23     0    39
 2 Birrarung Marr 2015-03-23 01:00:00 2015-03-23     1    24
 3 Birrarung Marr 2015-03-23 02:00:00 2015-03-23     2     1
 4 Birrarung Marr 2015-03-23 03:00:00 2015-03-23     3     3
 5 Birrarung Marr 2015-03-23 04:00:00 2015-03-23     4    16
 6 Birrarung Marr 2015-03-23 05:00:00 2015-03-23     5    36
 7 Birrarung Marr 2015-03-23 06:00:00 2015-03-23     6   178
 8 Birrarung Marr 2015-03-23 07:00:00 2015-03-23     7   462
 9 Birrarung Marr 2015-03-23 08:00:00 2015-03-23     8   756
10 Birrarung Marr 2015-03-23 09:00:00 2015-03-23     9   289
# … with 20,170 more rows
> pedestrian %>%
+   filter_index("2015-03-23 10" ~ "2015-10-31 12")
# A tsibble: 20,107 x 5 [1h] <Australia/Melbourne>
# Key:       Sensor [4]
   Sensor         Date_Time           Date        Time Count
   <chr>          <dttm>              <date>     <int> <int>
 1 Birrarung Marr 2015-03-23 10:00:00 2015-03-23    10   199
 2 Birrarung Marr 2015-03-23 11:00:00 2015-03-23    11   120
 3 Birrarung Marr 2015-03-23 12:00:00 2015-03-23    12   317
 4 Birrarung Marr 2015-03-23 13:00:00 2015-03-23    13   583
 5 Birrarung Marr 2015-03-23 14:00:00 2015-03-23    14   265
 6 Birrarung Marr 2015-03-23 15:00:00 2015-03-23    15   275
 7 Birrarung Marr 2015-03-23 16:00:00 2015-03-23    16   409
 8 Birrarung Marr 2015-03-23 17:00:00 2015-03-23    17   698
 9 Birrarung Marr 2015-03-23 18:00:00 2015-03-23    18   546
10 Birrarung Marr 2015-03-23 19:00:00 2015-03-23    19   276
# … with 20,097 more rows
…
> cleanEx()
> nameEx("group_by_key")
> ### * group_by_key
> 
> flush(stderr()); flush(stdout())
> 
> ### Name: group_by_key
> ### Title: Group by key variables
> ### Aliases: group_by_key
> 
> ### ** Examples
> 
> tourism %>%
+   group_by_key()
# A tsibble: 24,320 x 5 [1Q]
# Key:       Region, State, Purpose [304]
# Groups:    Region, State, Purpose [304]
   Quarter Region   State           Purpose  Trips
     <qtr> <chr>    <chr>           <chr>    <dbl>
 1 1998 Q1 Adelaide South Australia Business  135.
 2 1998 Q2 Adelaide South Australia Business  110.
 3 1998 Q3 Adelaide South Australia Business  166.
 4 1998 Q4 Adelaide South Australia Business  127.
 5 1999 Q1 Adelaide South Australia Business  137.
 6 1999 Q2 Adelaide South Australia Business  200.
 7 1999 Q3 Adelaide South Australia Business  169.
 8 1999 Q4 Adelaide South Australia Business  134.
 9 2000 Q1 Adelaide South Australia Business  154.
10 2000 Q2 Adelaide South Australia Business  169.
# … with 24,310 more rows
…
   <chr>            <date>    
 1 New Year's Day   2016-01-01
 2 Australia Day    2016-01-26
 3 Labour Day       2016-03-14
 4 Good Friday      2016-03-25
 5 Easter Saturday  2016-03-26
 6 Easter Sunday    2016-03-27
 7 Easter Monday    2016-03-28
 8 ANZAC Day        2016-04-25
 9 Queen's Birthday 2016-06-13
10 Melbourne Cup    2016-11-01
11 Boxing Day       2016-12-26
12 Christmas Day    2016-12-27
> holiday_aus(2013:2016, state = "ACT")
# A tibble: 44 x 2
   holiday          date      
   <chr>            <date>    
 1 New Year's Day   2013-01-01
 2 Australia Day    2013-01-28
 3 Canberra Day     2013-03-11
 4 Good Friday      2013-03-29
 5 Easter Saturday  2013-03-30
 6 Easter Sunday    2013-03-31
 7 Easter Monday    2013-04-01
 8 ANZAC Day        2013-04-25
 9 Queen's Birthday 2013-06-10
10 Christmas Day    2013-12-25
# … with 34 more rows
…
> 
> cleanEx()
> nameEx("index-by")
> ### * index-by
> 
> flush(stderr()); flush(stdout())
> 
> ### Name: index_by
> ### Title: Group by time index and collapse with 'summarise()'
> ### Aliases: index_by
> 
> ### ** Examples
> 
> pedestrian %>% index_by()
# A tsibble: 66,037 x 5 [1h] <Australia/Melbourne>
# Key:       Sensor [4]
# Groups:    @ Date_Time [17,542]
   Sensor         Date_Time           Date        Time Count
   <chr>          <dttm>              <date>     <int> <int>
 1 Birrarung Marr 2015-01-01 00:00:00 2015-01-01     0  1630
 2 Birrarung Marr 2015-01-01 01:00:00 2015-01-01     1   826
 3 Birrarung Marr 2015-01-01 02:00:00 2015-01-01     2   567
 4 Birrarung Marr 2015-01-01 03:00:00 2015-01-01     3   264
 5 Birrarung Marr 2015-01-01 04:00:00 2015-01-01     4   139
 6 Birrarung Marr 2015-01-01 05:00:00 2015-01-01     5    77
 7 Birrarung Marr 2015-01-01 06:00:00 2015-01-01     6    44
 8 Birrarung Marr 2015-01-01 07:00:00 2015-01-01     7    56
 9 Birrarung Marr 2015-01-01 08:00:00 2015-01-01     8   113
10 Birrarung Marr 2015-01-01 09:00:00 2015-01-01     9   166
# … with 66,027 more rows
> # Monthly counts across sensors
> library(dplyr, warn.conflicts = FALSE)
> monthly_ped <- pedestrian %>%
+   group_by_key() %>%
+   index_by(Year_Month = ~ yearmonth(.)) %>%
+   summarise(
+     Max_Count = max(Count),
+     Min_Count = min(Count)
+   )
> monthly_ped
# A tsibble: 95 x 4 [1M]
# Key:       Sensor [4]
   Sensor         Year_Month Max_Count Min_Count
   <chr>               <mth>     <int>     <int>
 1 Birrarung Marr   2015 Jan      5524         1
 2 Birrarung Marr   2015 Feb     10121         1
 3 Birrarung Marr   2015 Mar      9858         1
 4 Birrarung Marr   2015 Apr      7293         1
 5 Birrarung Marr   2015 May      5129         1
 6 Birrarung Marr   2015 Jun      7556         0
 7 Birrarung Marr   2015 Jul     11224         1
 8 Birrarung Marr   2015 Aug      5684         0
 9 Birrarung Marr   2015 Sep      7757         0
10 Birrarung Marr   2015 Oct      7085         1
# … with 85 more rows
…
