…
> flush(stderr()); flush(stdout())
> 
> ### Name: rename_genes
> ### Title: Rename genes in the differential network analysis
> ### Aliases: rename_genes
> 
> ### ** Examples
> 
> data(meso)
> data(p53_pathways)
> set.seed(0)
> results <- dnapath(x = meso$gene_expression, pathway_list = p53_pathways,
+                    groups = meso$groups, n_perm = 10)
> summary(results[[1]])  # Summary of pathway 1; note that it uses entrezgene IDs.
# A tibble: 37 x 6
   pathway                          genes dc_score p_value mean_expr1 mean_expr2
   <chr>                            <chr>    <dbl>   <dbl>      <dbl>      <dbl>
 1 Regulation of TP53 Degradation … 1616   0.00610   0.182      10.9       10.7 
 2 Regulation of TP53 Degradation … 6233   0.00531   0.182      13.6       13.3 
 3 Regulation of TP53 Degradation … 1175…  0.00528   0.182       9.46       9.39
 4 Regulation of TP53 Degradation … 5519   0.00506   0.182       9.14       9.20
 5 Regulation of TP53 Degradation … 7874   0.00464   0.182      11.2       11.1 
 6 Regulation of TP53 Degradation … 10000  0.00599   0.364       9.30       8.82
 7 Regulation of TP53 Degradation … 11200  0.00590   0.364       7.76       7.72
 8 Regulation of TP53 Degradation … 4193   0.00580   0.364      11.0       11.1 
 9 Regulation of TP53 Degradation … 79109  0.00554   0.364      10.7       10.7 
10 Regulation of TP53 Degradation … 890    0.00368   0.364       7.85       7.99
# … with 27 more rows
…
